<?xml version="1.0" encoding="utf-8"?>
<!-- Generator: Adobe Illustrator 23.0.3, SVG Export Plug-In . SVG Version: 6.00 Build 0)  -->
<svg version="1.1" id="Capa_1" xmlns="http://www.w3.org/2000/svg" xmlns:xlink="http://www.w3.org/1999/xlink" x="0px" y="0px"
	 viewBox="-33 157 480 485" style="enable-background:new -33 157 480 485;" xml:space="preserve">
<path d="M54.7,357h0.6c24.7,0.4,45.3-18.7,46.7-43.3l1-21.5c0.5-12.1-4-23.9-12.4-32.6c-9-9.3-21.4-14.5-34.4-14.5h-2.5
	c-12.9,0-25.3,5.2-34.3,14.5C11,268.2,6.5,280,7,292.1L8,313.7C9.4,338.3,30,357.4,54.7,357z M55.3,341h-0.6
	C38.6,341.4,25,329.1,24,313l-0.3-6.5c15.3-0.7,29.9-6.2,41.8-15.7c4.9,7.3,12.3,12.5,20.9,14.6L86,313
	C85,329.1,71.4,341.4,55.3,341z M53.8,261h2.5c8.6,0,16.8,3.4,22.8,9.6c4.7,4.9,7.4,11.2,7.8,18c-5.5-2.5-9.6-7.5-10.8-13.4
	c-0.4-3.4-3-6.2-6.4-6.8c-3.4-0.7-6.8,0.9-8.5,3.8c-0.1,0.2-10,15.9-38,18.3c-0.1-7.4,2.8-14.6,7.9-19.9C37,264.4,45.2,261,53.8,261
	z"/>
<path d="M366.7,549h0.6c24.7,0.4,45.3-18.7,46.7-43.3l1-21.5c0.5-12.1-4-23.9-12.4-32.6c-9-9.3-21.4-14.5-34.4-14.5h-2.5
	c-12.9,0-25.3,5.2-34.3,14.5c-8.5,8.7-13,20.5-12.4,32.6l0.9,21.5C321.4,530.3,342,549.4,366.7,549z M343,462.6
	c6-6.2,14.2-9.6,22.8-9.6h2.5c8.6,0,16.8,3.4,22.8,9.6c5.4,5.6,8.3,13.1,8,20.9l-1,21.5c-1.1,16.1-14.6,28.4-30.7,28h-0.6
	c-16.1,0.4-29.7-11.9-30.7-28l-1-21.6C334.7,475.7,337.6,468.2,343,462.6z"/>
<path d="M-9,541c2.7,0,5.4-0.5,8-1.4v9.4c0,4.4,3.6,8,8,8h96c4.4,0,8-3.6,8-8V419.3c0-2,0.8-4,2.1-5.5l101.5-109.2
	c8.5-8.8,8.3-22.8-0.5-31.3c-8.6-8.3-22.2-8.3-30.8,0L94,362.7c-1.5,1.5-3.5,2.3-5.7,2.3H7c-22.1,0-40,17.9-40,40v112
	C-33,530.3-22.3,541-9,541z M-17,405c0-13.3,10.7-24,24-24h81.4c6.4,0,12.5-2.5,17-7l89.3-89.3c2.4-2.3,6.3-2.3,8.7,0
	c2.4,2.5,2.4,6.4-0.1,8.8c0,0-0.1,0.1-0.1,0.1L101.4,402.9c-4.1,4.4-6.4,10.3-6.4,16.3V541H15V421c0-4.4-3.6-8-8-8s-8,3.6-8,8v96
	c0,4.4-3.6,8-8,8s-8-3.6-8-8V405z"/>
<path d="M55,501c4.4,0,8-3.6,8-8v-96c0-4.4-3.6-8-8-8s-8,3.6-8,8v96C47,497.4,50.6,501,55,501z"/>
<path d="M190.7,549h0.6c24.7,0.4,45.3-18.7,46.7-43.3l0.9-21.5c0.5-12.1-4-23.9-12.4-32.6c-9-9.3-21.4-14.5-34.3-14.5h-2.5
	c-12.9,0-25.3,5.2-34.3,14.5c-8.5,8.7-13,20.5-12.4,32.6l0.9,21.5C145.4,530.3,166,549.4,190.7,549z M167,462.6
	c6-6.2,14.2-9.6,22.8-9.6h2.5c8.6,0,16.8,3.4,22.8,9.6c5.4,5.6,8.3,13.1,8,20.9l-1,21.5c-1.1,16.1-14.6,28.4-30.7,28h-0.6
	c-16.1,0.4-29.7-11.9-30.7-28l-1-21.6C158.7,475.7,161.6,468.2,167,462.6z"/>
<path d="M111,595.7V629c0,4.4,3.6,8,8,8s8-3.6,8-8v-33.3c0-12.5,10.2-22.7,22.7-22.7h82.7c12.5,0,22.7,10.2,22.7,22.7V629
	c0,4.4,3.6,8,8,8s8-3.6,8-8v-33.3c0-21.3-17.3-38.6-38.7-38.7h-82.7C128.3,557,111,574.3,111,595.7z"/>
<path d="M408.3,557h-82.7c-21.3,0-38.6,17.3-38.7,38.7V629c0,4.4,3.6,8,8,8s8-3.6,8-8v-33.3c0-12.5,10.2-22.7,22.7-22.7h82.7
	c12.5,0,22.7,10.2,22.7,22.7V629c0,4.4,3.6,8,8,8s8-3.6,8-8v-33.3C447,574.3,429.7,557,408.3,557z"/>
<path d="M423.4,157H142.6c-13.1,0.1-23.7,10.9-23.6,24v120c0,4.4,3.6,8,8,8s8-3.6,8-8v-96h296v192c0.1,4.3-3.3,7.9-7.6,8h-273
	c-4.4,0-8,3.6-8,8s3.6,8,8,8h273c13.1-0.1,23.7-10.9,23.6-24V181C447.1,167.9,436.5,157.1,423.4,157z M135,189v-8
	c-0.1-4.3,3.3-7.9,7.6-8h280.8c4.3,0.1,7.7,3.7,7.6,8v8H135z"/>
<path d="M255,237c4.4,0,8-3.6,8-8s-3.6-8-8-8h-96c-4.4,0-8,3.6-8,8s3.6,8,8,8H255z"/>
<path d="M303,237c4.4,0,8-3.6,8-8s-3.6-8-8-8h-16c-4.4,0-8,3.6-8,8s3.6,8,8,8H303z"/>
</svg>
